[
  {
    "code": "10", 
    "name": "Conference", 
    "updated_at": "2015-06-19T08:19:59.461787Z"
  }, 
  {
    "code": "11", 
    "name": "Childrens Activities & Playground", 
    "updated_at": "2015-06-19T08:19:59.476500Z"
  }, 
  {
    "code": "12", 
    "name": "Bathroom", 
    "updated_at": "2015-06-19T08:19:59.500290Z"
  }, 
  {
    "code": "13", 
    "name": "Living Room", 
    "updated_at": "2015-06-19T08:19:59.523679Z"
  }, 
  {
    "code": "14", 
    "name": "Guest room amenity", 
    "updated_at": "2015-06-19T08:19:59.536589Z"
  }, 
  {
    "code": "15", 
    "name": "Property Facilities", 
    "updated_at": "2015-06-19T08:19:59.556274Z"
  }, 
  {
    "code": "16", 
    "name": "Featured Image", 
    "updated_at": "2015-06-19T08:19:59.596534Z"
  }, 
  {
    "code": "17", 
    "name": "Cafe/Bar", 
    "updated_at": "2015-06-19T08:19:59.609516Z"
  }, 
  {
    "code": "18", 
    "name": "Banquet/Ballroom", 
    "updated_at": "2015-06-19T08:19:59.653239Z"
  }, 
  {
    "code": "19", 
    "name": "Lounge", 
    "updated_at": "2015-06-19T08:19:59.683074Z"
  }, 
  {
    "code": "1a", 
    "name": "View from Hotel", 
    "updated_at": "2015-06-19T08:19:59.699364Z"
  }, 
  {
    "code": "1b", 
    "name": "Massage / Treatment Room", 
    "updated_at": "2015-06-19T08:19:59.712172Z"
  }, 
  {
    "code": "1c", 
    "name": "Room Service - Dining", 
    "updated_at": "2015-06-19T08:19:59.721709Z"
  }, 
  {
    "code": "1d", 
    "name": "Marina / Dock", 
    "updated_at": "2015-06-19T08:19:59.727775Z"
  }, 
  {
    "code": "1e", 
    "name": "Childrens Pool", 
    "updated_at": "2015-06-19T08:19:59.737328Z"
  }, 
  {
    "code": "1f", 
    "name": "Suite", 
    "updated_at": "2015-06-19T08:19:59.743296Z"
  }, 
  {
    "code": "20", 
    "name": "Sports Facility /Court", 
    "updated_at": "2015-06-19T08:19:59.756127Z"
  }, 
  {
    "code": "21", 
    "name": "Food / Dining Area", 
    "updated_at": "2015-06-19T08:19:59.775700Z"
  }, 
  {
    "code": "22", 
    "name": "Beach", 
    "updated_at": "2015-06-19T08:19:59.808864Z"
  }, 
  {
    "code": "23", 
    "name": "Hot News", 
    "updated_at": "2015-06-19T08:19:59.822248Z"
  }, 
  {
    "code": "24", 
    "name": "Executive Lounge", 
    "updated_at": "2015-06-19T08:19:59.828306Z"
  }, 
  {
    "code": "25", 
    "name": "Concierge Desk", 
    "updated_at": "2015-06-19T08:19:59.834325Z"
  }, 
  {
    "code": "26", 
    "name": "In-Room Business Center", 
    "updated_at": "2015-06-19T08:19:59.840335Z"
  }, 
  {
    "code": "27", 
    "name": "Business", 
    "updated_at": "2015-06-19T08:19:59.846387Z"
  }, 
  {
    "code": "28", 
    "name": "Mountain View", 
    "updated_at": "2015-06-19T08:19:59.862713Z"
  }, 
  {
    "code": "29", 
    "name": "Turkish Bath", 
    "updated_at": "2015-06-19T08:19:59.868745Z"
  }, 
  {
    "code": "2a", 
    "name": "Aerial view", 
    "updated_at": "2015-06-19T08:19:59.874786Z"
  }, 
  {
    "code": "2b", 
    "name": "Lake View", 
    "updated_at": "2015-06-19T08:19:59.884175Z"
  }, 
  {
    "code": "2c", 
    "name": "Spa/Bath/Sauna", 
    "updated_at": "2015-06-19T08:19:59.893720Z"
  }, 
  {
    "code": "2d", 
    "name": "Water park /Aqua center", 
    "updated_at": "2015-06-19T08:19:59.944528Z"
  }, 
  {
    "code": "2e", 
    "name": "Recreation & Activities", 
    "updated_at": "2015-06-19T08:19:59.953899Z"
  }, 
  {
    "code": "2f", 
    "name": "In-Room Dining Area", 
    "updated_at": "2015-06-19T08:20:00.035006Z"
  }, 
  {
    "code": "30", 
    "name": "Wedding", 
    "updated_at": "2015-06-19T08:20:00.040988Z"
  }, 
  {
    "code": "31", 
    "name": "Courtyard View", 
    "updated_at": "2015-06-19T08:20:00.050347Z"
  }, 
  {
    "code": "32", 
    "name": "View of skyline", 
    "updated_at": "2015-06-19T08:20:00.059823Z"
  }, 
  {
    "code": "33", 
    "name": "Lobby", 
    "updated_at": "2015-06-19T08:20:00.065858Z"
  }, 
  {
    "code": "34", 
    "name": "Pool", 
    "updated_at": "2015-06-19T08:20:00.088744Z"
  }, 
  {
    "code": "35", 
    "name": "Hotel Entrance", 
    "updated_at": "2015-06-19T08:20:00.132001Z"
  }, 
  {
    "code": "36", 
    "name": "Basics", 
    "updated_at": "2015-06-19T08:20:00.144816Z"
  }, 
  {
    "code": "37", 
    "name": "BBQ / Picnic Area", 
    "updated_at": "2015-06-19T08:20:00.150776Z"
  }, 
  {
    "code": "38", 
    "name": "Restaurant", 
    "updated_at": "2015-06-19T08:20:00.156788Z"
  }, 
  {
    "code": "39", 
    "name": "Guestroom ", 
    "updated_at": "2015-06-19T08:20:00.176420Z"
  }, 
  {
    "code": "3a", 
    "name": "Casino", 
    "updated_at": "2015-06-19T08:20:00.195844Z"
  }, 
  {
    "code": "3b", 
    "name": "Outdoor Dining", 
    "updated_at": "2015-06-19T08:20:00.205232Z"
  }, 
  {
    "code": "3c", 
    "name": "Natural Pool", 
    "updated_at": "2015-06-19T08:20:00.214642Z"
  }, 
  {
    "code": "3d", 
    "name": "Garden View", 
    "updated_at": "2015-06-19T08:20:00.220843Z"
  }, 
  {
    "code": "3e", 
    "name": "Parking & Shuttle", 
    "updated_at": "2015-06-19T08:20:00.237183Z"
  }, 
  {
    "code": "3f", 
    "name": "In-Room Kitchen", 
    "updated_at": "2015-06-19T08:20:00.253384Z"
  }, 
  {
    "code": "40", 
    "name": "Reception", 
    "updated_at": "2015-06-19T08:20:00.263049Z"
  }, 
  {
    "code": "41", 
    "name": "City View", 
    "updated_at": "2015-06-19T08:20:00.283372Z"
  }, 
  {
    "code": "42", 
    "name": "Room Type 2", 
    "updated_at": "2015-06-19T08:20:00.289399Z"
  }, 
  {
    "code": "43", 
    "name": "Room Type 3", 
    "updated_at": "2015-06-19T08:20:00.292022Z"
  }, 
  {
    "code": "44", 
    "name": "Minibar / Fridge", 
    "updated_at": "2015-06-19T08:20:00.294733Z"
  }, 
  {
    "code": "45", 
    "name": "Meeting Room", 
    "updated_at": "2015-06-19T08:20:00.304130Z"
  }, 
  {
    "code": "46", 
    "name": "Health club", 
    "updated_at": "2015-06-19T08:20:00.323861Z"
  }, 
  {
    "code": "47", 
    "name": "Golf", 
    "updated_at": "2015-06-19T08:20:00.338941Z"
  }, 
  {
    "code": "48", 
    "name": "Terrace /Balcony", 
    "updated_at": "2015-06-19T08:20:00.362039Z"
  }, 
  {
    "code": "49", 
    "name": "Sundeck", 
    "updated_at": "2015-06-19T08:20:00.385216Z"
  }, 
  {
    "code": "4a", 
    "name": "Promotional", 
    "updated_at": "2015-06-19T08:20:00.391310Z"
  }, 
  {
    "code": "4b", 
    "name": "Snow and Ski Sports", 
    "updated_at": "2015-06-19T08:20:00.397354Z"
  }, 
  {
    "code": "4c", 
    "name": "Fitness Center/ Gym", 
    "updated_at": "2015-06-19T08:20:00.413559Z"
  }, 
  {
    "code": "4d", 
    "name": "Surrounding", 
    "updated_at": "2015-06-19T08:20:00.433655Z"
  }, 
  {
    "code": "4e", 
    "name": "Other", 
    "updated_at": "2015-06-19T08:20:00.446672Z"
  }, 
  {
    "code": "4f", 
    "name": "Exterior", 
    "updated_at": "2015-06-19T08:20:00.493411Z"
  }, 
  {
    "code": "50", 
    "name": "Logo", 
    "updated_at": "2015-06-19T08:20:00.526493Z"
  }, 
  {
    "code": "51", 
    "name": "Breakfast/Breakfast Room", 
    "updated_at": "2015-06-19T08:20:00.532450Z"
  }, 
  {
    "code": "52", 
    "name": "Map", 
    "updated_at": "2015-06-19T08:20:00.545276Z"
  }, 
  {
    "code": "53", 
    "name": "Pet-Friendly", 
    "updated_at": "2015-06-19T08:20:00.554619Z"
  }, 
  {
    "code": "54", 
    "name": "Beach/Ocean View", 
    "updated_at": "2015-06-19T08:20:00.560660Z"
  }
]