{
  "count": {
    "coredata": {
      "hotelthemes": 23, 
      "roomtypes": 9, 
      "hotels": 8312, 
      "facilitycategories": 71, 
      "countries": 252, 
      "mealtypes": 8, 
      "facilitythemes": 56, 
      "facilityscopes": 3, 
      "regions": 1786, 
      "facilities": 810, 
      "destinations": 80348, 
      "hoteltypes": 31, 
      "continents": 7, 
      "imagecategories": 69, 
      "facilitytypes": 16, 
      "masterhotels": 291
    }
  }
}